# ProBuilder 4.2.3
# https://unity3d.com/unity/features/worldbuilding/probuilder
# 2020/03/26 12:01:26

mtllib ./BlueBerry.mtl
o BlueBerry

g Topping0201
v 0.06109865 -0.00276155 0.01957585
v 0.01235801 -0.02354123 0.002539429
v 0.05046631 -0.02224506 0.01081116
v 0.09537069 -0.000219375 0.0579312
v 0.09784459 -0.009385494 0.06044327
v 0.07877563 -0.04816713 0.04476521
v 0.0956544 -0.03360647 0.1220548
v 0.07813183 -0.07251531 0.09261313
v 0.09896152 -0.009378009 0.1233615
v 0.04438477 -0.06068969 0.02500182
v 0.02725677 -0.03444249 0.007295264
v 0.006412989 -0.05421376 0.00958384
v -0.008406151 -0.06045467 0.01143897
v 0.03228664 -0.08186714 0.04114036
v -0.002255842 -0.09061137 0.04386654
v -0.03581341 -0.07443628 0.03690081
v 0.02033144 -0.1021942 0.100386
v -0.0354717 -0.09533878 0.08129118
v -0.005304014 -0.09714286 0.1294765
v 0.02434875 -0.08192227 0.1430419
v -0.00429555 -0.05411576 0.1810839
v 0.03305422 -0.06404906 0.1602954
v -0.05254255 -0.08771002 0.09209345
v 0.05972538 -0.04583135 0.1617434
v 0.05253042 -0.02676176 0.1816909
v 0.02727471 -0.02463103 0.1912336
v -0.02035796 -0.08174112 0.1477447
v -0.05655591 -0.08429034 0.08534387
v -0.06833553 -0.06644507 0.05132243
v -0.05963352 -0.07434686 0.1293195
v -0.03419256 -0.03731539 0.1868292
v -0.02265864 -0.03933447 0.1861459
v -0.01486928 -0.03563819 0.1884888
v -0.02335506 -0.02785511 0.1929216
v -0.06918195 -0.07032696 0.1273035
v -0.04627355 -0.05499199 0.0222675
v -0.04060724 -0.01890251 0.008673488
v -0.03033731 -0.04281124 0.01190081
v -0.07073301 -0.05314645 0.1428595
v -0.08889282 -0.03070722 0.1409133
v -0.0435484 -0.02626722 0.1865944
v -0.0471258 -0.00449556 0.1962318
v -0.03362397 0.006860443 0.1978416
v -0.03321793 -0.01733158 0.1935259
v -0.08322714 -0.06109662 0.08523732
v -0.08640863 -0.03105434 0.04998043
v -0.06306639 -0.01570763 0.01763023
v -0.09999695 -0.02790191 0.08494329
v -0.07874229 0.002821706 0.03039177
v -0.1029938 -0.001226404 0.07340468
v -0.08546617 0.04878701 0.06428534
v -0.1054456 0.003020894 0.1042748
v -0.09210231 0.02321499 0.14069
v -0.07591529 -0.0001255897 0.1687497
v -0.05044175 0.005153873 0.009602528
v -0.04458899 0.007252466 0.007064755
v -0.01158909 0.002699016 0.0008968262
v -0.05670709 0.02560814 0.01984824
v -0.04162864 0.02393393 0.01062041
v -0.07999813 0.04720477 0.05908598
v -0.06961268 0.0418372 0.04021817
v -0.07988705 0.05493511 0.0688017
v -0.07593693 0.06820493 0.1063353
v -0.0533222 0.05796829 0.0328775
v -0.05874033 0.07506584 0.06112282
v -0.03139422 0.08014507 0.04052091
v -0.04311016 0.0912488 0.09101523
v -0.0475351 0.06728011 0.1637339
v -0.06919762 0.06667629 0.1285642
v -0.008692231 0.09936594 0.1263954
v -0.02822652 0.03242228 0.006561423
v -0.01737315 0.0163271 0.002668175
v -0.002842549 0.01800686 0.001600288
v -0.02741469 0.06286042 0.02322292
v 0.006852459 0.04287133 0.006251348
v -0.06352653 0.04516206 0.1636049
v -0.06466944 0.01165673 0.1789318
v -0.02996219 0.02836589 0.1976622
v -0.0457111 0.007150823 0.1938575
v -0.03444727 0.0498943 0.1828122
v -0.02214255 0.06886245 0.1707098
v -0.004574939 0.06480432 0.01764102
v 0.007623041 0.1046806 0.09227741
v 0.02921692 0.07074491 0.1659668
v -0.0005344912 0.07742845 0.167473
v -0.003726227 0.0382308 0.2001014
v -0.004679354 0.03390818 0.200469
v -0.02089204 0.02048505 0.2005919
v 0.0005163602 0.03880765 0.1996735
v 0.02890408 0.03341254 0.1926307
v 0.03188894 0.01249777 0.1932937
v 0.05392773 0.04273609 0.1736621
v 0.04148999 0.02472981 0.1877401
v 0.04699619 0.00852932 0.1883417
v 0.04101149 0.003544714 0.1922357
v 0.07880153 0.01367761 0.1593789
v 0.09193242 0.008328653 0.1417188
v 0.04444438 -0.001551006 0.1897388
v 0.08654983 0.02858439 0.1396467
v 0.1024959 0.0231956 0.09094749
v 0.07236786 0.05995147 0.1356812
v 0.08830705 0.04144584 0.1211129
v 0.07853418 0.06489252 0.08231656
v 0.05012167 0.07618312 0.1430605
v 0.04505116 0.09049528 0.08810293
v 0.03819679 0.08298016 0.05418738
v 0.04346903 0.06516831 0.03237368
v 0.04889048 0.04964161 0.02164897
v 0.07192602 0.02616708 0.03088648
v 0.04465818 0.006744578 0.009312586
v 0.01649993 0.01570579 0.002779702
v 0.04879742 0.01537896 0.01216459
v 0.08087357 0.03426839 0.04731826
v 0.0902599 0.03987363 0.06588969
v 0.08271344 0.01454911 0.03860529
v 0.06944916 0.01406717 0.02618245
v 0.09199677 0.003940047 0.05246498
v 0.01294288 -0.03661466 0.1873885
v -0.008052678 0.007081653 0.001000385
v -0.004111157 0.0007544215 0.0003438038
v 0.002102888 -0.002535301 0.0007446084
v 0.009263954 0.009382538 0.001396887
v -0.01138998 0.01799804 0.1930347
v 0.01228694 0.02345528 0.1942328
v 0.01510469 0.01430646 0.1891385
v 0.0003008924 -0.004491246 0.1831273
v 0.0222987 0.005543216 0.1875632
v 0.02663723 0.01292086 0.1913628
v 0.0278483 -0.008281047 0.1863716
v -0.01360149 0.01253604 0.1895958
v -0.02387628 0.01031446 0.1917289
v -0.01290462 0.007668172 0.1877638
v -0.02019973 -0.006252306 0.185679
v -0.01559663 -0.02517498 0.1842168
v 0.005463271 -0.01246357 0.1830176
v 0.01390046 -0.02464092 0.1841181
v 0.02031037 -0.01588656 0.1848601
v -0.03083018 -0.008324691 0.1975088
v -0.02082637 -0.01744869 0.1852301
v -0.02456058 -0.01169707 0.1872682
v -0.02243077 -0.02261868 0.1892748
v -0.01407892 -0.03180744 0.1862164
v -0.002898 -0.026161 0.183877
v 0.001011458 -0.02932092 0.1850142
v 0.01465794 -0.03277327 0.1868327

vt 1.0006 0.0856
vt 1.002443 0.05490013
vt 0.9225377 0.1027577
vt 1.0006 0.1866
vt 0.994916 0.118543
vt 0.9827356 0.2710575
vt 0.9092203 0.2304169
vt 0.940772 0.4494915
vt 0.8856996 0.367172
vt 0.9996456 0.3904978
vt 0.8631471 0.1634669
vt 0.8582525 0.0706984
vt 0.8166945 0.002161535
vt 0.7833849 0.1018228
vt 0.739647 0.1094597
vt 0.8214529 0.2161269
vt 0.7570432 0.224043
vt 0.684913 0.1991362
vt 0.7958527 0.3945446
vt 0.7073556 0.3346883
vt 0.7561259 0.4664165
vt 0.8067808 0.5103405
vt 0.7396784 0.6204228
vt 0.8270294 0.5550695
vt 0.6766527 0.3684325
vt 0.9047385 0.5544523
vt 0.9380209 0.5809782
vt 0.9991858 0.4945379
vt 0.8503419 0.6945745
vt 0.655889 0.5535553
vt 0.6690508 0.348472
vt 0.6345414 0.2485717
vt 0.6526866 0.4733671
vt 0.6119404 0.6449392
vt 0.6483634 0.6589136
vt 0.7247 0.6956
vt 0.619069 0.6951493
vt 0.6333944 0.4609333
vt 0.6493177 0.1533511
vt 0.5663689 0.08021431
vt 0.6554598 0.1016867
vt 0.6412095 0.0059159
vt 0.6129427 0.5094757
vt 0.5550768 0.4944926
vt 0.5705272 0.6461222
vt 0.4952979 0.6494971
vt 0.5765 0.6956
vt 0.4954 0.6956
vt 0.5146199 0.6954057
vt 0.6139698 0.3483907
vt 0.5654427 0.2388411
vt 0.541555 0.1355029
vt 0.5532524 0.346545
vt 0.4986253 0.180344
vt 0.5086076 0.313094
vt 0.4209874 0.2837105
vt 0.4995661 0.3982935
vt 0.4612116 0.4877498
vt 0.4973533 0.5674301
vt 0.4889725 0.09268694
vt 0.4823695 0.07760146
vt 0.4904538 0.0004653805
vt 0.434143 0.1352153
vt 0.4316834 0.09047893
vt 0.4166921 0.001751984
vt 0.4184828 0.26653
vt 0.4166468 0.2049384
vt 0.407264 0.2943362
vt 0.3864453 0.3999563
vt 0.3714963 0.18827
vt 0.3603412 0.2730225
vt 0.3107578 0.2172698
vt 0.3248577 0.3586967
vt 0.3392962 0.5392869
vt 0.3799136 0.458664
vt 0.2684712 0.4478175
vt 0.3591159 0.07421217
vt 0.353 0.0059
vt 0.319144 0.004496855
vt 0.3227632 0.1508521
vt 0.236139 0.08439912
vt 0.2768027 -0.002332906
vt 0.3979825 0.5469159
vt 0.4592654 0.5974947
vt 0.3649089 0.6482914
vt 0.4940727 0.6958737
vt 0.4700421 0.6443545
vt 0.341349 0.5965606
vt 0.3010561 0.5604208
vt 0.2770492 0.1260158
vt 0.2437767 0.3599356
vt 0.1970726 0.5458526
vt 0.2571667 0.5498045
vt 0.2769944 0.6689578
vt 0.3338 0.6956
vt 0.3486107 0.6955321
vt 0.2621915 0.6665774
vt 0.270994 0.6929832
vt 0.1563977 0.6368345
vt 0.1923414 0.6957016
vt 0.1286149 0.5708462
vt 0.1215729 0.6282787
vt 0.0709573 0.6360767
vt 0.09852029 0.6960072
vt 0.06956134 0.6627559
vt 0.03987599 0.5400597
vt 0.03589523 0.5183604
vt 0.0029 0.6001
vt 0.05970853 0.4900425
vt 0.04432717 0.3569459
vt 0.0029 0.4082
vt 0.1170334 0.4746632
vt 0.07379156 0.439766
vt 0.1136315 0.335808
vt 0.1679455 0.4900399
vt 0.1871029 0.3535874
vt 0.1898993 0.2514478
vt 0.1663992 0.1863334
vt 0.1448873 0.1513035
vt 0.06207369 0.1807642
vt 0.04111222 0.08333998
vt 0.1361695 0.007817313
vt 0.06056195 0.1018947
vt 0.0679528 0.2281777
vt 0.06901322 0.2896609
vt 0.03968482 0.2020505
vt 0.0029 0.1354
vt 0.04506044 0.1586387
vt 0.01499717 0.2524852
vt 0.0029 0.1635
vt 0.0029 0.1917
vt 0.002972357 0.3107781
vt 0.1616283 0.003730278
vt 0.2271 0.0059
vt 0.0029 0.3364
vt 0.0029 0.3753
vt 0.04094357 0.03172168
vt 0.0762 0.0059
vt 0.0029 0.1072
vt 0.0153 0.0819
vt 1.0006 0.3365
vt 1.0006 0.5641
vt 0.935 0.6956
vt 0.9022 0.6956
vt 0.8046143 0.692928
vt 0.7769 0.6956
vt 0.7736948 0.6953232
vt 0.6302 0.6956
vt 0.5565 0.6956
vt 0.4993687 0.005410844
vt 0.412686 0.6931646
vt 0.3802 0.6956
vt 0.2605645 0.6941622
vt 0.3625615 0.007915107
vt 0.0029 0.5381
vt 0.0029 0.5691
vt 0.02872079 0.6955748
vt 0.0029 0.6795
vt 0.866 0.8591
vt 0.8817828 0.9068433
vt 0.8627 0.8618
vt 0.9100634 0.9058431
vt 0.8363 0.9112
vt 0.9121 0.8489
vt 0.9505708 0.859534
vt 0.9182208 0.9281918
vt 0.8826249 0.9423966
vt 0.8358 0.9162
vt 0.8978 0.9801
vt 0.0912 0.9167
vt 0.1031 0.9259
vt 0.1259802 0.9035116
vt 0.1654 0.9556
vt 0.2044549 0.9167508
vt 0.2139829 0.8893728
vt 0.1654387 0.8261053
vt 0.2383994 0.8603289
vt 0.2559394 0.8847032
vt 0.2534 0.9145
vt 0.2569874 0.8135685
vt 0.2973182 0.8474177
vt 0.1195661 0.8833752
vt 0.08700665 0.8783807
vt 0.071 0.9048
vt 0.0609 0.8989
vt 0.1221937 0.8666962
vt 0.09826837 0.8206199
vt 0.1123298 0.758671
vt 0.181797 0.801378
vt 0.2097114 0.7610862
vt 0.2310971 0.7893627
vt 0.05268449 0.8222938
vt 0.0469 0.8461
vt 0.09555954 0.7840939
vt 0.08270282 0.8032146
vt 0.08816256 0.7534961
vt 0.1155292 0.7356071
vt 0.0495 0.7907
vt 0.0806 0.7358
vt 0.0873 0.7308
vt 0.1548 0.7571
vt 0.1673543 0.7468473
vt 0.2123911 0.731092
vt 0.1627736 0.7272399
vt 0.1929 0.7204
vt 0.2549297 0.7572621
vt 0.0508 0.7775
vt 0.0552 0.7708
vt 0.2084 0.717
vt 0.224 0.7135
vt 0.2994 0.8151
vt 0.2665 0.7724
vt 0.2775 0.7866
vt 0.2043 0.9418
vt 0.1893 0.949

vn 0.1911768 0.3140214 -0.9299688
vn 0.8993513 -0.005965433 -0.437186
vn 0.7205813 -0.12912 -0.681242
vn 0.5561655 -0.1691405 -0.8136777
vn 0.9448197 -0.1360666 -0.297996
vn 0.7359346 -0.4268434 -0.5255522
vn 0.8891817 -0.3377774 0.3086458
vn 0.6465829 -0.7583395 0.08277534
vn 0.9799196 -0.009932827 0.1991459
vn 0.3834271 -0.5613444 -0.7334005
vn 0.2409008 -0.2899105 -0.926239
vn 0.04631373 -0.1929032 -0.9801242
vn 0.1507706 -0.4592594 -0.8754137
vn -0.1399015 -0.4492795 -0.8823693
vn 0.3230584 -0.7688302 -0.5518453
vn -0.04872208 -0.8854808 -0.4621147
vn -0.3244262 -0.785227 -0.5274147
vn 0.2097183 -0.977551 0.02030367
vn -0.2989332 -0.949393 -0.09639464
vn -0.05203836 -0.9339491 0.3535974
vn 0.3064587 -0.7809572 0.5442324
vn 0.05057777 -0.6141374 0.7875767
vn 0.3807228 -0.6891658 0.616523
vn -0.4766582 -0.8790669 -0.006186218
vn 0.5872775 -0.5554103 0.5887483
vn 0.5748014 -0.40666 0.7100922
vn -0.01899778 -0.2872164 0.9576772
vn -0.2729471 -0.793892 0.5433556
vn -0.5095947 -0.837208 -0.198484
vn -0.6888577 -0.5680148 -0.4503712
vn -0.4950781 -0.8051333 0.3265854
vn -0.3588254 -0.5508648 0.75352
vn -0.1292511 -0.5679683 0.8128383
vn 0.1764858 -0.08197189 0.980884
vn 0.2871413 -0.04526724 0.956818
vn -0.610772 -0.6834703 0.3997823
vn -0.4319741 -0.4536949 -0.779461
vn -0.3557334 -0.216984 -0.9090499
vn -0.2704922 -0.3597322 -0.8929875
vn -0.5977692 -0.5332012 0.5986388
vn -0.8150192 -0.3668062 0.4485496
vn -0.3791589 -0.357459 0.8534997
vn -0.5267636 -0.06219799 0.8477332
vn 0.132558 -0.2451952 0.9603685
vn -0.2565173 -0.3246587 0.9103821
vn -0.7657225 -0.6399257 -0.06453014
vn -0.8060027 -0.2988495 -0.510929
vn -0.5742281 -0.2308967 -0.7854609
vn -0.9455372 -0.3170541 -0.07372992
vn -0.7568946 0.110629 -0.6441054
vn -0.9640706 -0.0147518 -0.2652362
vn -0.7487983 0.4898005 -0.4465384
vn -0.9936617 0.06272927 0.0932812
vn -0.8486931 0.2675917 0.4561959
vn -0.7644899 0.01798388 0.6443847
vn -0.520148 0.206829 -0.8286543
vn -0.4720332 0.101641 -0.8757018
vn -0.1871082 -0.05316738 -0.9808995
vn -0.6789075 0.2587333 -0.6871256
vn -0.4246373 0.2818395 -0.8603776
vn -0.647723 0.4684747 -0.6008214
vn -0.6760246 0.4009225 -0.6182653
vn -0.6486721 0.6743572 -0.3527986
vn -0.6739727 0.7355205 0.06906801
vn -0.5619645 0.4773474 -0.6755261
vn -0.5761791 0.7338419 -0.3598524
vn -0.2934788 0.7834172 -0.5478392
vn -0.4419453 0.896239 -0.03794711
vn -0.4606407 0.6988548 0.5471857
vn -0.6431744 0.7005051 0.3092238
vn -0.1054966 0.970239 0.2179603
vn -0.2405039 0.2442599 -0.9394121
vn -0.2374238 0.05031271 -0.9701023
vn -0.07972489 0.1726214 -0.9817564
vn -0.2154004 0.5785491 -0.7866915
vn -0.03320319 0.4174599 -0.9080885
vn -0.6757048 0.4112617 0.6117897
vn -0.7025421 0.1470315 0.6962875
vn -0.3701503 0.3651035 0.8542179
vn -0.5365108 0.2408368 0.8087978
vn -0.2890017 0.5421059 0.7890496
vn -0.1913837 0.655714 0.7303502
vn -0.04553105 0.6575656 -0.7520202
vn 0.1212788 0.9906671 -0.06221004
vn 0.3436927 0.7224495 0.5999516
vn 0.01783245 0.7744775 0.63235
vn -0.1062177 0.3651618 0.9248646
vn 0.1332029 -0.1665228 0.9769991
vn 0.3388998 -0.4645276 0.8181449
vn 0.1417049 0.3484272 0.9265626
vn 0.3583109 0.2998565 0.8841376
vn 0.08455209 -0.1179821 0.9894095
vn 0.6950212 0.4018777 0.5961878
vn 0.5172339 0.2326956 0.8236029
vn 0.5293317 0.08696534 0.843946
vn 0.605562 0.01100581 0.7957221
vn 0.731406 0.05267013 0.6799052
vn 0.8265606 0.04155347 0.5613118
vn 0.5202083 -0.05086572 0.8525233
vn 0.7793899 0.5427739 0.3129664
vn 0.9642414 0.2650246 0.0007017567
vn 0.7290073 0.5768318 0.3685288
vn 0.8863196 0.3026304 0.350503
vn 0.7217075 0.6610252 -0.2053873
vn 0.4552318 0.8148214 0.3589292
vn 0.5462913 0.8290851 -0.1190955
vn 0.3433437 0.8350793 -0.4298345
vn 0.4696388 0.6949911 -0.5444509
vn 0.455493 0.4199608 -0.784958
vn 0.7076434 0.2073772 -0.6754521
vn 0.4631125 0.03178834 -0.8857293
vn 0.286589 0.2209141 -0.9322359
vn 0.452459 0.1495334 -0.879159
vn 0.724587 0.4179569 -0.5479833
vn 0.8653997 0.2940548 -0.4057278
vn 0.7755767 -0.04310388 -0.62978
vn 0.6292771 -0.07661253 -0.7733957
vn 0.8474246 0.01918687 -0.530569
vn 0.07702348 0.1416433 -0.9868405
vn 0.07834637 0.1537035 -0.9850062
vn 0.0985456 -0.05324133 -0.9937072
vn 0.2207341 -0.01732492 -0.9751802
vn 0.210602 -0.01624182 -0.977437
vn 0.4100755 -0.2406034 -0.8797432
vn 0.01852592 0.05088891 0.9985325
vn 0.3332251 -0.1880553 0.9239028
vn 0.07950132 -0.2449695 0.9662657
vn -0.2648303 0.05312505 0.9628305
vn 0.6989849 -0.3619554 0.6167727
vn -0.5646896 -0.6373406 0.5243307
vn -0.07076678 0.08059572 -0.9942316
vn -0.05751439 0.07820595 -0.9952768
vn -0.08567852 0.09257577 -0.9920126
vn -0.08382189 0.09444431 -0.991995
vn -0.05004255 0.07219575 -0.9961343
vn -0.04425396 0.07580236 -0.9961404
vn -0.1158399 -0.1670085 -0.9791268
vn 0.003530919 -0.03958466 -0.99921
vn 0.07486446 -0.02766446 -0.9968099
vn 0.1269989 0.001187612 -0.9919022
vn 0.03323385 0.07016579 -0.9969816
vn 0.0757006 0.1295831 -0.9886748
vn 0.1466602 -0.5137515 0.8453107
vn -0.1057048 -0.5251768 0.8444026
vn -0.07738998 -0.3700098 0.9257989
vn -0.01109158 -0.2590706 0.9657947
vn -0.207806 -0.2414937 0.9478911
vn -0.3243292 -0.3881901 0.8626234
vn -0.2945583 -0.03599162 0.9549555
vn 0.0949597 -0.442514 0.8917197
vn 0.4709761 -0.4149237 0.7784728
vn 0.1361599 -0.2894496 0.9474594
vn 0.4002395 -0.1902315 0.8964487
vn 0.2371006 0.1204837 0.963985
vn -0.07028074 -0.0235499 0.9972492
vn -0.1336761 0.1507055 0.9794991
vn -0.2209539 0.05306309 0.9738396
vn 0.4336054 -0.1891527 0.8810264
vn 0.5759233 0.1919704 0.7946444
vn 0.6875633 -0.07547601 0.7221912
vn 0.6149694 0.1441039 0.775272
vn 0.2432227 0.3484857 0.9052073
vn 0.00218982 0.078559 0.9969071
vn 0.03188499 0.1709325 0.9847667
vn -0.1564274 0.3303634 0.930801
vn 0.5057726 0.4311143 0.7472179
vn -0.4966941 0.3374458 0.7996408
vn -0.2991689 0.2816044 0.9117001
vn -0.4764167 -0.8655192 0.1546083

usemtl BlueberryDiffuse
f 3/3/1 2/2/1 1/1/1
f 3/3/4 1/5/3 4/4/2
f 3/3/4 11/12/11 2/13/12
f 11/12/11 12/14/13 2/13/12
f 11/12/11 10/11/10 12/14/13
f 12/14/13 13/15/14 2/13/12
f 14/16/15 12/14/13 10/11/10
f 13/15/14 15/17/16 16/18/17
f 21/23/22 20/22/21 22/24/23
f 20/22/21 8/9/8 22/24/23
f 24/26/25 25/27/26 22/24/23
f 7/8/7 25/27/26 24/26/25
f 23/25/24 28/31/29 16/18/17
f 30/33/31 23/25/24 27/30/28
f 32/35/33 27/30/28 21/23/22
f 30/33/31 31/34/32 35/38/36
f 29/32/30 37/40/38 36/39/37
f 36/39/37 37/40/38 38/41/39
f 38/41/39 37/40/38 13/15/14
f 35/38/36 31/34/32 39/43/40
f 40/44/41 35/38/36 39/43/40
f 42/46/43 41/45/42 43/48/44
f 37/40/38 29/32/30 47/52/48
f 46/51/47 47/52/48 29/32/30
f 46/51/47 49/54/50 47/52/48
f 52/57/53 50/55/51 48/53/49
f 48/53/49 40/44/41 52/57/53
f 53/58/54 54/59/55 42/46/43
f 47/52/48 49/54/50 55/60/56
f 37/40/38 56/61/57 57/62/58
f 56/61/57 51/56/52 58/63/59
f 59/64/60 56/61/57 58/63/59
f 60/66/61 58/63/59 51/56/52
f 61/67/62 58/63/59 60/66/61
f 58/63/59 61/67/62 59/64/60
f 63/69/64 62/68/63 51/56/52
f 64/70/65 59/64/60 61/67/62
f 63/69/64 69/75/70 68/74/69
f 69/75/70 63/69/64 53/58/54
f 59/64/60 71/77/72 72/78/73
f 75/81/76 74/80/75 66/72/67
f 77/84/78 76/83/77 53/58/54
f 53/58/54 42/46/43 77/84/78
f 80/88/81 68/74/69 78/85/79
f 68/74/69 80/88/81 81/89/82
f 78/85/79 81/89/82 80/88/81
f 75/81/76 66/72/67 82/90/83
f 83/91/84 66/72/67 70/76/71
f 84/92/85 70/76/71 85/93/86
f 78/85/79 86/94/87 81/89/82
f 89/97/90 86/94/87 87/98/88
f 95/105/96 94/103/95 91/104/92
f 98/108/99 97/107/98 95/105/96
f 99/109/100 100/110/101 92/101/93
f 100/110/101 102/113/103 92/101/93
f 102/113/103 101/112/102 92/101/93
f 101/112/102 102/113/103 103/114/104
f 105/116/106 83/91/84 104/115/105
f 105/116/106 106/117/107 83/91/84
f 106/117/107 105/116/106 107/118/108
f 106/117/107 107/118/108 82/90/83
f 112/123/113 108/119/109 109/120/110
f 108/119/109 112/123/113 110/121/111
f 103/114/104 114/125/115 113/124/114
f 114/125/115 109/120/110 113/124/114
f 116/128/117 115/126/116 110/121/111
f 4/131/2 1/130/3 117/129/118
f 4/132/2 117/129/118 100/110/101
f 9/136/9 4/135/2 100/110/101
f 2/140/124 110/121/124 1/139/124
f 26/144/125 25/27/126 98/143/125
f 118/146/127 21/23/22 26/145/27
f 88/152/128 78/85/128 43/151/128
f 97/107/129 98/156/129 9/155/129
f 98/158/130 95/105/130 91/157/130
f 120/162/135 119/160/132 73/163/136
f 121/166/139 122/167/140 2/169/121
f 123/172/143 87/171/88 88/170/89
f 123/172/143 124/174/144 87/173/88
f 126/176/146 127/177/147 125/175/145
f 91/179/92 124/174/144 128/178/148
f 129/180/149 128/178/148 127/177/147
f 123/172/143 130/182/150 126/176/146
f 43/185/44 131/183/151 88/184/89
f 130/182/150 132/186/152 126/176/146
f 132/186/152 133/187/153 126/176/146
f 137/191/157 129/180/149 135/189/155
f 136/190/156 129/180/149 137/191/157
f 140/195/160 133/187/153 138/192/158
f 139/194/159 141/196/161 134/188/154
f 141/196/161 138/192/158 44/198/45
f 33/200/34 142/197/162 34/199/35
f 143/201/163 136/190/156 134/188/154
f 144/202/164 136/190/156 142/197/162
f 34/208/166 141/196/166 44/207/166
f 26/210/167 145/203/167 118/209/167
f 98/213/125 129/180/168 26/212/125
f 87/215/169 124/174/169 91/214/169
f 6/7/6 3/3/4 4/4/2
f 4/4/2 5/6/5 6/7/6
f 6/7/6 5/6/5 7/8/7
f 7/8/7 8/9/8 6/7/6
f 9/10/9 7/8/7 5/6/5
f 5/6/5 4/141/2 9/10/9
f 3/3/4 6/7/6 10/11/10
f 10/11/10 11/12/11 3/3/4
f 10/11/10 6/7/6 8/9/8
f 8/9/8 14/16/15 10/11/10
f 12/14/13 14/16/15 15/17/16
f 15/17/16 13/15/14 12/14/13
f 17/19/18 15/17/16 14/16/15
f 14/16/15 8/9/8 17/19/18
f 16/18/17 15/17/16 18/20/19
f 18/20/19 23/25/24 16/18/17
f 18/20/19 15/17/16 17/19/18
f 17/19/18 19/21/20 18/20/19
f 17/19/18 8/9/8 20/22/21
f 20/22/21 19/21/20 17/19/18
f 27/30/28 19/21/20 20/22/21
f 20/22/21 21/23/22 27/30/28
f 23/25/24 18/20/19 19/21/20
f 19/21/20 27/30/28 23/25/24
f 24/26/25 22/24/23 8/9/8
f 8/9/8 7/8/7 24/26/25
f 21/23/22 22/24/23 25/27/26
f 25/27/26 26/29/27 21/23/22
f 25/27/26 7/8/7 9/28/9
f 9/28/9 98/142/99 25/27/26
f 16/18/17 28/31/29 29/32/30
f 29/32/30 36/39/37 16/18/17
f 23/25/24 30/33/31 29/32/30
f 29/32/30 28/31/29 23/25/24
f 31/34/32 30/33/31 27/30/28
f 27/30/28 32/35/33 31/34/32
f 33/36/34 32/35/33 21/23/22
f 21/23/22 118/147/127 33/36/34
f 34/37/35 31/34/32 32/35/33
f 32/35/33 33/148/34 34/37/35
f 29/32/30 30/33/31 35/38/36
f 35/38/36 45/50/46 29/32/30
f 16/18/17 36/39/37 38/41/39
f 38/41/39 13/15/14 16/18/17
f 2/42/12 13/15/14 37/40/38
f 37/40/38 57/150/58 2/42/12
f 31/34/32 41/45/42 40/44/41
f 40/44/41 39/43/40 31/34/32
f 54/59/55 40/44/41 41/45/42
f 41/45/42 42/46/43 54/59/55
f 41/45/42 31/34/32 34/47/35
f 34/47/35 44/149/45 41/45/42
f 43/48/44 41/45/42 44/49/45
f 44/49/45 138/192/158 43/48/44
f 45/50/46 35/38/36 40/44/41
f 40/44/41 48/53/49 45/50/46
f 46/51/47 29/32/30 45/50/46
f 45/50/46 48/53/49 46/51/47
f 46/51/47 48/53/49 50/55/51
f 50/55/51 49/54/50 46/51/47
f 51/56/52 49/54/50 50/55/51
f 50/55/51 52/57/53 51/56/52
f 53/58/54 52/57/53 40/44/41
f 40/44/41 54/59/55 53/58/54
f 51/56/52 52/57/53 53/58/54
f 53/58/54 63/69/64 51/56/52
f 56/61/57 37/40/38 47/52/48
f 47/52/48 55/60/56 56/61/57
f 56/61/57 55/60/56 49/54/50
f 49/54/50 51/56/52 56/61/57
f 57/65/58 56/61/57 59/64/60
f 59/64/60 72/154/73 57/65/58
f 61/67/62 60/66/61 51/56/52
f 51/56/52 62/68/63 61/67/62
f 64/70/65 61/67/62 62/68/63
f 62/68/63 65/71/66 64/70/65
f 67/73/68 65/71/66 62/68/63
f 62/68/63 63/69/64 67/73/68
f 64/70/65 65/71/66 66/72/67
f 66/72/67 74/80/75 64/70/65
f 70/76/71 66/72/67 65/71/66
f 65/71/66 67/73/68 70/76/71
f 67/73/68 63/69/64 68/74/69
f 68/74/69 70/76/71 67/73/68
f 68/74/69 69/75/70 53/58/54
f 53/58/54 76/83/77 68/74/69
f 74/80/75 71/77/72 59/64/60
f 59/64/60 64/70/65 74/80/75
f 72/78/73 71/77/72 73/79/74
f 73/79/74 119/160/134 72/78/73
f 73/82/74 71/77/72 74/80/75
f 74/80/75 75/81/76 73/82/74
f 68/74/69 76/83/77 77/84/78
f 77/84/78 78/85/79 68/74/69
f 79/87/80 42/46/43 43/86/44
f 43/86/44 78/85/79 79/87/80
f 79/87/80 78/85/79 77/84/78
f 77/84/78 42/46/43 79/87/80
f 85/93/86 70/76/71 68/74/69
f 68/74/69 81/89/82 85/93/86
f 82/90/83 66/72/67 83/91/84
f 83/91/84 106/117/107 82/90/83
f 83/91/84 70/76/71 84/92/85
f 84/92/85 104/115/105 83/91/84
f 85/93/86 81/89/82 86/94/87
f 86/94/87 89/97/90 85/93/86
f 87/95/88 86/94/87 78/85/79
f 78/85/79 88/96/89 87/95/88
f 90/99/91 84/92/85 85/93/86
f 85/93/86 89/97/90 90/99/91
f 91/100/92 90/99/91 89/97/90
f 89/97/90 87/153/88 91/100/92
f 92/101/93 84/92/85 90/99/91
f 90/99/91 93/102/94 92/101/93
f 94/103/95 93/102/94 90/99/91
f 90/99/91 91/104/92 94/103/95
f 92/101/93 93/102/94 94/103/95
f 94/103/95 96/106/97 92/101/93
f 97/107/98 96/106/97 94/103/95
f 94/103/95 95/105/96 97/107/98
f 99/109/100 92/101/93 96/106/97
f 96/106/97 97/107/98 99/109/100
f 9/111/9 100/110/101 99/109/100
f 99/109/100 97/107/98 9/111/9
f 84/92/85 92/101/93 101/112/102
f 101/112/102 104/115/105 84/92/85
f 103/114/104 102/113/103 100/110/101
f 100/110/101 114/125/115 103/114/104
f 104/115/105 101/112/102 103/114/104
f 103/114/104 105/116/106 104/115/105
f 107/118/108 105/116/106 103/114/104
f 103/114/104 108/119/109 107/118/108
f 82/90/83 107/118/108 108/119/109
f 108/119/109 75/81/76 82/90/83
f 109/120/110 108/119/109 103/114/104
f 103/114/104 113/124/114 109/120/110
f 75/81/76 108/119/109 110/121/111
f 110/121/111 111/122/112 75/81/76
f 110/121/111 112/123/113 109/120/110
f 109/120/110 116/128/117 110/121/111
f 109/120/110 114/125/115 115/126/116
f 115/126/116 116/128/117 109/120/110
f 115/126/116 114/125/115 100/110/101
f 100/110/101 117/129/118 115/126/116
f 1/127/3 110/121/111 115/126/116
f 115/126/116 117/129/118 1/127/3
f 73/134/119 75/81/120 111/133/119
f 111/133/119 122/167/142 73/134/119
f 111/138/123 110/121/122 2/137/121
f 2/137/121 122/167/140 111/138/123
f 57/159/131 72/161/133 119/160/132
f 119/160/132 120/162/135 57/159/131
f 121/166/139 2/165/121 57/164/137
f 57/164/137 120/162/138 121/166/139
f 73/168/141 122/167/140 121/166/139
f 121/166/139 120/162/138 73/168/141
f 125/175/145 124/174/144 123/172/143
f 123/172/143 126/176/146 125/175/145
f 128/178/148 124/174/144 125/175/145
f 125/175/145 127/177/147 128/178/148
f 129/180/149 127/177/147 126/176/146
f 126/176/146 135/189/155 129/180/149
f 91/181/92 128/178/148 129/180/149
f 129/180/149 98/211/99 91/181/92
f 131/183/151 130/182/150 123/172/143
f 123/172/143 88/184/89 131/183/151
f 132/186/152 130/182/150 131/183/151
f 131/183/151 133/187/153 132/186/152
f 126/176/146 133/187/153 134/188/154
f 134/188/154 135/189/155 126/176/146
f 135/189/155 134/188/154 136/190/156
f 136/190/156 137/191/157 135/189/155
f 138/192/158 133/187/153 131/183/151
f 131/183/151 43/193/44 138/192/158
f 139/194/159 134/188/154 133/187/153
f 133/187/153 140/195/160 139/194/159
f 138/192/158 141/196/161 139/194/159
f 139/194/159 140/195/160 138/192/158
f 34/199/35 142/197/162 134/188/154
f 134/188/154 141/196/161 34/199/35
f 136/190/156 143/201/163 134/188/154
f 134/188/154 142/197/162 136/190/156
f 144/202/164 142/197/162 145/203/165
f 145/203/165 136/190/156 144/202/164
f 145/203/165 142/197/162 33/204/34
f 33/204/34 118/205/127 145/203/165
f 129/180/149 136/190/156 145/203/165
f 145/203/165 26/206/27 129/180/149

